<svg width="102" height="47" viewBox="0 0 102 47" fill="none" xmlns="http://www.w3.org/2000/svg">
<path d="M100.913 17.1435C101.277 20.0811 100.294 23.0825 98.1305 26.0123C95.9645 28.945 92.6317 31.7807 88.3596 34.3559C79.8165 39.5058 67.5996 43.5648 53.7357 45.2863C39.8717 47.0078 27.0333 46.06 17.4904 43.1559C12.7183 41.7037 8.79331 39.7693 5.97597 37.4554C3.16141 35.1437 1.47454 32.4738 1.10987 29.5362C0.745201 26.5987 1.72802 23.5973 3.89191 20.6675C6.05792 17.7347 9.39073 14.8991 13.6629 12.3239C22.206 7.174 34.4228 3.11501 48.2868 1.39349C62.1507 -0.328026 74.9891 0.619808 84.532 3.52387C89.3042 4.9761 93.2291 6.9105 96.0465 9.22443C98.861 11.5361 100.548 14.206 100.913 17.1435Z" stroke="#F04D22"/>
</svg>
