<svg width="54" height="24" viewBox="0 0 54 24" fill="none" xmlns="http://www.w3.org/2000/svg">
<g clip-path="url(#clip0)">
<path d="M10.2341 3.09375C10.8625 2.25 11.3114 1.125 11.1767 0C10.2341 0.046875 9.11188 0.65625 8.43857 1.45312C7.85503 2.15625 7.31638 3.32812 7.45104 4.40625C8.52835 4.54687 9.56076 3.9375 10.2341 3.09375ZM11.1767 4.6875C9.65054 4.59375 8.34879 5.57812 7.63059 5.57812C6.91239 5.57812 5.7902 4.73438 4.57824 4.73438C3.00717 4.78125 1.57077 5.67187 0.762791 7.17187C-0.853163 10.125 0.313915 14.4844 1.92987 16.875C2.69296 18.0469 3.6356 19.3594 4.84756 19.3125C6.01464 19.2656 6.46352 18.5156 7.85503 18.5156C9.24655 18.5156 9.65054 19.3125 10.9074 19.2656C12.1642 19.2187 12.9722 18.0937 13.7353 16.875C14.6331 15.5156 14.9922 14.2031 14.9922 14.1562C14.9473 14.1094 12.5233 13.1719 12.5233 10.2656C12.4785 7.82812 14.4086 6.65625 14.4984 6.60937C13.466 4.92188 11.7603 4.73437 11.1767 4.6875Z" fill="black"/>
<path d="M24.374 1.35938C27.6957 1.35938 29.985 3.75 29.985 7.17188C29.985 10.6406 27.6508 13.0312 24.2843 13.0312H20.6484V19.0781H18V1.35938H24.374ZM20.6484 10.7344H23.6558C25.9451 10.7344 27.2468 9.42188 27.2468 7.21875C27.2468 4.96875 25.9451 3.70312 23.6558 3.70312H20.6035V10.7344H20.6484ZM30.6583 15.4688C30.6583 13.2188 32.3191 11.8125 35.2817 11.625L38.6932 11.4375V10.4531C38.6932 9 37.7505 8.15625 36.2244 8.15625C34.7431 8.15625 33.8453 8.90625 33.6209 10.0312H31.1969C31.3316 7.6875 33.2618 5.95312 36.3141 5.95312C39.3216 5.95312 41.2518 7.59375 41.2518 10.2188V19.125H38.8278V17.0156H38.7829C38.0647 18.4687 36.4937 19.3594 34.8777 19.3594C32.364 19.3594 30.6583 17.7656 30.6583 15.4688ZM38.6932 14.2969V13.2656L35.6408 13.4531C34.1146 13.5469 33.2618 14.25 33.2618 15.375C33.2618 16.5 34.1595 17.25 35.5062 17.25C37.3017 17.25 38.6932 15.9844 38.6932 14.2969ZM43.4961 23.9062V21.75C43.6757 21.7969 44.1246 21.7969 44.3041 21.7969C45.4712 21.7969 46.0996 21.2812 46.5036 19.9687C46.5036 19.9219 46.7281 19.1719 46.7281 19.1719L42.2393 6.23438H44.9774L48.1196 16.7812H48.1645L51.3066 6.23438H53.9998L49.3764 19.875C48.2991 23.0156 47.0872 24 44.5286 24C44.349 23.9531 43.7206 23.9531 43.4961 23.9062Z" fill="black"/>
</g>
<defs>
<clipPath id="clip0">
<rect width="54" height="24" fill="white"/>
</clipPath>
</defs>
</svg>
