<svg width="58" height="24" viewBox="0 0 58 24" fill="none" xmlns="http://www.w3.org/2000/svg">
<g clip-path="url(#clip0)">
<path d="M27.4318 11.7266V18.7595H25.2889V1.38732H30.9692C32.3394 1.35694 33.6635 1.89871 34.6475 2.89112C35.6436 3.82529 36.2048 5.162 36.1829 6.55694C36.2121 7.962 35.6509 9.30884 34.6475 10.2455C33.6538 11.2329 32.4269 11.7266 30.9692 11.724L27.4318 11.7266ZM27.4318 3.52656V9.59238H31.0226C31.8195 9.6177 32.5872 9.29112 33.1412 8.69365C34.266 7.55441 34.2928 5.67846 33.197 4.50631C33.1776 4.48605 33.1606 4.4658 33.1412 4.44808C32.5945 3.83795 31.8219 3.50378 31.0226 3.52656H27.4318ZM41.1197 6.48605C42.7038 6.48605 43.9526 6.92656 44.8685 7.80757C45.7844 8.68859 46.2412 9.89871 46.2412 11.4329V18.7595H44.1931V17.1088H44.1008C43.214 18.4683 42.0332 19.1468 40.5609 19.1468C39.3049 19.1468 38.2529 18.7595 37.4074 17.9823C36.5862 17.2607 36.1198 16.1924 36.1392 15.0709C36.1392 13.8405 36.5862 12.8633 37.4779 12.1367C38.3695 11.4101 39.56 11.0455 41.0517 11.0455C42.3223 11.0455 43.3719 11.2886 44.1931 11.7721V11.2607C44.1979 10.4962 43.8724 9.77213 43.3087 9.28605C42.7427 8.75441 42.0041 8.46327 41.2412 8.4734C40.0459 8.4734 39.0984 8.99998 38.4011 10.0506L36.5158 8.81264C37.5508 7.26074 39.0862 6.48605 41.1197 6.48605ZM38.3476 15.1215C38.3452 15.6987 38.61 16.2405 39.0571 16.5772C39.5308 16.9645 40.1188 17.1721 40.7213 17.1595C41.6251 17.1569 42.4924 16.7823 43.1314 16.1164C43.8408 15.4202 44.1955 14.605 44.1955 13.6658C43.5274 13.1114 42.5969 12.8329 41.4016 12.8329C40.5318 12.8329 39.8054 13.0506 39.2247 13.4886C38.6392 13.9342 38.3476 14.4734 38.3476 15.1215ZM58.0001 6.8734L50.85 24H48.6391L51.2922 18.0076L46.5886 6.8734H48.9161L52.315 15.4126H52.3612L55.6677 6.8734H58.0001Z" fill="#5F6368"/>
<path d="M18.7753 10.2076C18.7753 9.52655 18.7219 8.84807 18.6101 8.17719H9.57715V12.0202H14.7496C14.5358 13.2607 13.8458 14.3569 12.8376 15.0531V17.5493H15.9255C17.7331 15.8152 18.7753 13.2455 18.7753 10.2076Z" fill="#4285F4"/>
<path d="M9.57717 19.962C12.1622 19.962 14.339 19.0785 15.9255 17.5519L12.8376 15.0557C11.9775 15.6633 10.8721 16.0101 9.57717 16.0101C7.07962 16.0101 4.95864 14.2557 4.20063 11.8911H1.02039V14.4633C2.64574 17.8354 5.95718 19.962 9.57717 19.962Z" fill="#34A853"/>
<path d="M4.20064 11.8911C3.79977 10.6532 3.79977 9.30885 4.20064 8.07087V5.49872H1.0204C-0.340133 8.31897 -0.340133 11.643 1.0204 14.4633L4.20064 11.8911Z" fill="#FBBC04"/>
<path d="M9.57717 3.9519C10.9426 3.92911 12.2618 4.46582 13.2506 5.4481L15.9862 2.6C14.2516 0.903794 11.9557 -0.0278517 9.57717 -3.56219e-06C5.95718 -3.56219e-06 2.64574 2.12911 1.02039 5.49873L4.20063 8.07088C4.95864 5.70633 7.07962 3.9519 9.57717 3.9519Z" fill="#EA4335"/>
</g>
<defs>
<clipPath id="clip0">
<rect width="58" height="24" fill="white"/>
</clipPath>
</defs>
</svg>
