<svg width="50" height="15" viewBox="0 0 50 15" fill="none" xmlns="http://www.w3.org/2000/svg">
<path fill-rule="evenodd" clip-rule="evenodd" d="M13.8801 0.64917V0.65519C13.874 0.65519 11.9722 0.64917 11.465 2.46117C11.0001 4.12267 9.68996 8.70986 9.65373 8.83627H9.29147C9.29147 8.83627 7.95112 4.14675 7.48018 2.45515C6.97302 0.64315 5.06512 0.64917 5.06512 0.64917H0.718018V14.4348H5.06512V6.2477H5.24625H5.42738L7.96319 14.4348H10.982L13.5178 6.25372H13.8801V14.4348H18.2272V0.64917H13.8801Z" fill="#4DB45E"/>
<path fill-rule="evenodd" clip-rule="evenodd" d="M29.7589 0.64917C29.7589 0.64917 28.4849 0.763549 27.8872 2.09395L24.808 8.83627H24.4457V0.64917H20.0986V14.4348H24.2042C24.2042 14.4348 25.5386 14.3144 26.1363 12.99L29.1551 6.2477H29.5174V14.4348H33.8645V0.64917H29.7589Z" fill="#4DB45E"/>
<path fill-rule="evenodd" clip-rule="evenodd" d="M35.7966 6.90979V14.4347H40.1437V10.0402H44.8531C46.9059 10.0402 48.6447 8.73383 49.2908 6.90979H35.7966Z" fill="#4DB45E"/>
<path fill-rule="evenodd" clip-rule="evenodd" d="M44.8533 0.64917H35.187C35.67 3.27386 37.6443 5.38083 40.1983 6.06711C40.7779 6.22362 41.3877 6.3079 42.0156 6.3079H49.466C49.5325 5.99487 49.5626 5.67581 49.5626 5.34471C49.5626 2.75012 47.4555 0.64917 44.8533 0.64917Z" fill="url(#paint0_linear)"/>
<defs>
<linearGradient id="paint0_linear" x1="35.1882" y1="6.30767" x2="49.5626" y2="6.30767" gradientUnits="userSpaceOnUse">
<stop offset="0.3" stop-color="#00B4E6"/>
<stop offset="1" stop-color="#088CCB"/>
</linearGradient>
</defs>
</svg>
